…
In order to continue the cleansing of the data, we need to make certain variables factors. This is done in order to visualize the variables properly later on.

#Make certain variables factor
listings_cleaned_step2 %>% 
  mutate(host_neighbourhood = as.factor(host_neighbourhood),
         room_type = as.factor(room_type),
         cancellation_policy = as.factor(cancellation_policy),
         host_is_superhost = as.factor(host_is_superhost))

## # A tibble: 8,986 x 30
##    space price weekly_price monthly_price security_deposit cleaning_fee
##    <chr> <dbl>        <dbl>         <dbl>            <dbl>        <dbl>
##  1 "ENG…    93          625          1800              150           65
##  2 "ENG…    78          546          1495              150           65
##  3 "\"B…   100           NA            NA                0            0
##  4 "125…   200           NA            NA               NA           NA
##  5 "The…    74          480          1659              200           20
##  6 "Thi…    60          600          1800              100           15
##  7 "Det…    95          650          2550              100           NA
##  8 "Det…    85          660          2800              100           NA
##  9 "Det…    85          660          2800              100           NA
## 10 "Det…   135          720          3400              100           NA
## # … with 8,976 more rows, and 24 more variables: host_response_time <chr>,
## #   host_response_rate <chr>, host_acceptance_rate <chr>,
## #   host_neighbourhood <fct>, host_verifications <chr>,
## #   host_listings_count <dbl>, host_is_superhost <fct>, property_type <chr>,
## #   room_type <fct>, accommodates <dbl>, bathrooms <dbl>, bedrooms <dbl>,
## #   beds <dbl>, square_feet <lgl>, neighbourhood <chr>,
## #   is_location_exact <lgl>, latitude <dbl>, longitude <dbl>,
## #   number_of_reviews <dbl>, review_scores_rating <dbl>, minimum_nights <dbl>,
## #   maximum_nights <dbl>, cancellation_policy <fct>, id <dbl>
…
